ExifTool Version Number         : 10.10
File Name                       : tumblr_inline_okk4o4JvT91uaeexd_500.jpg
Directory                       : .
File Size                       : 83 kB
File Modification Date/Time     : 2017:02:04 00:50:04+01:00
File Access Date/Time           : 2017:02:04 00:52:23+01:00
File Inode Change Date/Time     : 2017:02:04 00:50:07+01:00
File Permissions                : rw-rw-r--
File Type                       : JPEG
File Type Extension             : jpg
MIME Type                       : image/jpeg
JFIF Version                    : 1.01
Resolution Unit                 : None
X Resolution                    : 1
Y Resolution                    : 1
Image Width                     : 500
Image Height                    : 282
Encoding Process                : Baseline DCT, Huffman coding
Bits Per Sample                 : 8
Color Components                : 3
Y Cb Cr Sub Sampling            : YCbCr4:4:4 (1 1)
Image Size                      : 500x282
Megapixels                      : 0.141
